{
  "project_info": {
    "project_number": "1004750211220",
    "project_id": "firebase-357010",
    "storage_bucket": "firebase-357010.appspot.com"
  },
  "client": [
    {
      "client_info": {
        "mobilesdk_app_id": "1:1004750211220:android:c81f285762d0e1c7774c81",
        "android_client_info": {
          "package_name": "com.authentication"
        }
      },
      "oauth_client": [
        {
          "client_id": "1004750211220-bksrgrrodm0gd4a1irtcdae4b4l1cm9t.apps.googleusercontent.com",
          "client_type": 1,
          "android_info": {
            "package_name": "com.authentication",
            "certificate_hash": "1a9637e52cc4cf3b5a833e41ca3b95a5a9f3e998"
          }
        },
        {
          "client_id": "1004750211220-rls5hs2d98bcge5e7r59tl584bpqfi0q.apps.googleusercontent.com",
          "client_type": 3
        }
      ],
      "api_key": [
        {
          "current_key": "AIzaSyCMBUnFLjgVa8RPFtVQsT7yOg9qHap06p4"
        }
      ],
      "services": {
        "appinvite_service": {
          "other_platform_oauth_client": [
            {
              "client_id": "1004750211220-rls5hs2d98bcge5e7r59tl584bpqfi0q.apps.googleusercontent.com",
              "client_type": 3
            }
          ]
        }
      }
    }
  ],
  "configuration_version": "1"
}